<svg width="20" height="20" viewBox="0 0 20 20" fill="none" xmlns="http://www.w3.org/2000/svg">
<path d="M17.1022 19.8141C11.8337 19.8141 6.57367 19.8141 1.30518 19.8141C1.27124 19.7976 1.2373 19.7811 1.20337 19.7729C0.651917 19.6244 0.287109 19.1708 0.287109 18.6099C0.287109 15.558 0.287109 12.5144 0.287109 9.46254C0.287109 9.02538 0.490723 8.6872 0.872497 8.45624C0.974304 8.39851 1.00824 8.33252 1.00824 8.22529C1.00824 7.60667 1.39001 7.2355 2.03479 7.2355C2.22992 7.2355 2.43353 7.2355 2.62866 7.2355C2.64563 7.17776 2.65411 7.13652 2.65411 7.10353C2.78137 5.82504 2.91711 4.5548 3.03589 3.27632C3.10376 2.6412 3.51098 2.31127 4.15576 2.37725C5.5047 2.50923 6.86212 2.6412 8.21106 2.77317C8.43164 2.79792 8.5589 2.90515 8.55041 3.07011C8.53344 3.24332 8.38922 3.33406 8.16015 3.30931C6.78576 3.17734 5.41986 3.04537 4.04547 2.91339C3.75702 2.88865 3.62976 2.97938 3.60431 3.25982C3.47705 4.46407 3.35828 5.66007 3.23102 6.86432C3.18011 7.32623 3.13769 7.78813 3.09527 8.25004C3.42615 8.31602 3.43463 8.30778 3.46857 8.01084C3.57037 7.02929 3.66369 6.04774 3.7655 5.0662C3.79095 4.80225 3.91821 4.60429 4.18121 4.49707C4.5036 4.37334 4.74963 4.16713 4.94476 3.89494C5.09747 3.68048 5.30957 3.58975 5.58105 3.6145C6.25128 3.68048 6.9215 3.74647 7.59173 3.80421C7.81231 3.82895 7.93957 3.94443 7.91412 4.1094C7.88867 4.27436 7.76141 4.35684 7.53234 4.3321C6.89605 4.27436 6.25128 4.20837 5.61499 4.14239C5.49621 4.12589 5.41986 4.15889 5.35199 4.25786C5.13989 4.56305 4.85144 4.794 4.5036 4.93422C4.36786 4.99196 4.32544 5.0662 4.31695 5.18992C4.26605 5.71781 4.20666 6.25395 4.15576 6.78184C4.10486 7.26849 4.06244 7.75514 4.01153 8.26653C4.40179 8.26653 4.78357 8.25829 5.15686 8.26653C5.30957 8.27478 5.39441 8.21704 5.47925 8.10157C7.00634 5.90752 8.54193 3.72173 10.069 1.53593C10.2472 1.27198 10.4508 1.05753 10.7732 0.966797C10.8835 0.966797 11.0023 0.966797 11.1125 0.966797C11.2228 1.01629 11.3501 1.05753 11.4519 1.12351C13.3184 2.36076 15.1848 3.598 17.0513 4.84349C17.4839 5.13218 17.5773 5.63533 17.2888 6.05599C17.0597 6.39417 16.8222 6.7241 16.5931 7.06228C16.5592 7.11177 16.5337 7.16126 16.4828 7.2355C16.5762 7.2355 16.6355 7.2355 16.7034 7.2355C17.1616 7.26024 17.5179 7.54893 17.6027 7.9696C17.6282 8.10157 17.6112 8.24179 17.6282 8.37376C17.6366 8.4315 17.6536 8.50573 17.696 8.54698C18.0184 8.81917 18.1457 9.1656 18.1457 9.57801C18.1372 10.3204 18.1457 11.0627 18.1457 11.8051C18.1457 11.871 18.1457 11.937 18.1457 12.0195C18.239 12.0195 18.3069 12.0195 18.3747 12.0195C18.8074 12.0278 19.0535 12.2587 19.0535 12.6794C19.0535 13.6032 19.0535 14.5187 19.0535 15.4425C19.0535 15.8385 18.8074 16.0777 18.3917 16.0942C18.3154 16.0942 18.2305 16.0942 18.1457 16.0942C18.1457 16.1849 18.1457 16.2509 18.1457 16.3251C18.1457 17.0922 18.1457 17.8593 18.1457 18.6264C18.1457 19.1873 17.7809 19.6409 17.2294 19.7976C17.17 19.7894 17.1361 19.8059 17.1022 19.8141ZM17.5518 17.8758C17.45 17.8758 17.3652 17.8758 17.2888 17.8758C12.9535 17.8758 8.62677 17.8758 4.2915 17.8758C4.20666 17.8758 4.13031 17.8758 4.04547 17.8675C3.90124 17.851 3.8164 17.7521 3.8164 17.6201C3.8164 17.4716 3.89276 17.3726 4.04547 17.3561C4.12182 17.3479 4.19818 17.3479 4.27453 17.3479C8.61828 17.3479 12.962 17.3479 17.3058 17.3479C17.3821 17.3479 17.467 17.3479 17.5433 17.3479C17.5433 16.9107 17.5433 16.5066 17.5433 16.0859C17.4755 16.0859 17.4161 16.0859 17.3567 16.0859C16.5762 16.0859 15.7956 16.0859 15.0151 16.0859C14.3958 16.0859 13.8613 15.8962 13.4371 15.459C12.8348 14.8239 12.6736 14.0816 13.0129 13.2815C13.3523 12.4732 14.0055 12.0443 14.9048 12.0195C15.7193 11.9948 16.5253 12.0113 17.3397 12.0113C17.4076 12.0113 17.4755 12.0113 17.5348 12.0113C17.5348 11.5823 17.5348 11.1699 17.5348 10.7658C11.9609 10.7658 6.40399 10.7658 0.838562 10.7658C0.838562 12.9598 0.838562 15.1374 0.838562 17.3397C0.914917 17.3397 0.982788 17.3397 1.05066 17.3397C1.45789 17.3397 1.86511 17.3397 2.28082 17.3397C2.47595 17.3397 2.57776 17.4386 2.58624 17.5954C2.59473 17.7603 2.48443 17.8675 2.28082 17.8675C2.00085 17.8758 1.7124 17.8675 1.43243 17.8675C1.2373 17.8675 1.04218 17.8675 0.847046 17.8675C0.847046 18.1727 0.830078 18.4532 0.85553 18.7336C0.872497 18.8573 0.96582 18.9893 1.05914 19.0965C1.20337 19.2615 1.42395 19.2698 1.63605 19.2698C6.68396 19.2698 11.7234 19.2698 16.7713 19.2698C16.8476 19.2698 16.924 19.2698 17.0004 19.2615C17.2803 19.2285 17.5348 19.0058 17.5518 18.7336C17.5688 18.4614 17.5518 18.181 17.5518 17.8758ZM0.85553 10.2049C6.42944 10.2049 11.9864 10.2049 17.5688 10.2049C17.5688 9.99868 17.5688 9.80072 17.5688 9.61101C17.5688 9.05012 17.3227 8.81917 16.7543 8.81917C11.7234 8.81917 6.69244 8.81917 1.6615 8.81917C1.60211 8.81917 1.53424 8.81917 1.47485 8.81917C1.16943 8.84391 0.889465 9.06662 0.864014 9.35531C0.830078 9.6275 0.85553 9.90794 0.85553 10.2049ZM13.0384 8.27478C13.3353 8.27478 13.6068 8.28303 13.8868 8.26653C13.9377 8.26653 14.0055 8.2088 14.0395 8.15931C14.3619 7.7139 14.6758 7.26024 14.9812 6.80659C15.0236 6.74885 15.0321 6.62512 15.0066 6.56739C14.837 6.22096 14.7606 5.85803 14.7945 5.47861C14.803 5.35489 14.7606 5.2889 14.6673 5.22291C13.751 4.62079 12.8433 4.01866 11.9355 3.40829C11.8422 3.3423 11.7658 3.33406 11.664 3.39179C11.3246 3.55676 10.9598 3.62275 10.5865 3.58975C10.4508 3.57326 10.3744 3.6145 10.2896 3.72173C9.27154 5.18992 8.24499 6.64987 7.21844 8.11806C7.19299 8.15931 7.16754 8.2088 7.12512 8.27478C7.54931 8.27478 7.94806 8.26653 8.3468 8.27478C8.48254 8.27478 8.50799 8.22529 8.53344 8.10982C8.66919 7.26849 9.15277 6.66637 9.9757 6.36118C10.7902 6.05599 11.5622 6.19621 12.2409 6.7406C12.716 7.12827 12.962 7.64791 13.0384 8.27478ZM16.5507 15.5498C17.1106 15.5498 17.6706 15.5415 18.2305 15.558C18.4172 15.558 18.4766 15.5168 18.4766 15.3271C18.4681 14.4775 18.4681 13.6197 18.4766 12.7701C18.4766 12.5886 18.4172 12.5474 18.239 12.5474C17.1785 12.5556 16.1095 12.5474 15.0491 12.5556C14.8964 12.5556 14.7436 12.5639 14.5994 12.5969C13.8528 12.7619 13.3353 13.4547 13.4032 14.1723C13.488 14.9641 14.1158 15.5415 14.9218 15.558C15.4733 15.5498 16.0077 15.5498 16.5507 15.5498ZM14.6503 8.25004C14.9218 8.30778 15.083 8.25829 15.2357 8.03558C15.7363 7.29324 16.2538 6.56739 16.7713 5.82504C16.9495 5.56934 16.924 5.40438 16.661 5.23941C14.837 4.02691 13.0129 2.81441 11.1889 1.60192C10.9429 1.43695 10.7732 1.46994 10.6035 1.71739C9.11035 3.84545 7.61718 5.98176 6.12402 8.10982C6.09857 8.15106 6.07312 8.1923 6.04767 8.24179C6.31915 8.29953 6.48034 8.24179 6.62457 8.01084C6.94696 7.49944 7.31176 7.01279 7.6596 6.5179C8.38922 5.47036 9.12731 4.42283 9.85693 3.3753C10.0181 3.14435 10.2302 3.01237 10.5187 3.04537C10.858 3.08661 11.1719 3.02887 11.4689 2.8804C11.7149 2.75668 11.9524 2.77317 12.1815 2.92989C13.1317 3.56501 14.0819 4.19188 15.0321 4.827C15.2696 4.98371 15.3375 5.19817 15.346 5.47036C15.346 5.73431 15.3715 6.023 15.4817 6.25395C15.6429 6.60863 15.626 6.88907 15.3884 7.19426C15.1339 7.53244 14.9048 7.88711 14.6503 8.25004ZM12.4615 8.26653C12.436 7.41696 11.6046 6.71586 10.6799 6.7571C9.83148 6.79009 9.02551 7.54893 9.07641 8.26653C10.1963 8.26653 11.3246 8.26653 12.4615 8.26653ZM17.0343 8.26653C17.0597 8.08507 17.0258 7.88711 16.8561 7.84587C16.6101 7.78813 16.3386 7.80463 16.0756 7.78813C16.0586 7.78813 16.0417 7.80463 16.0332 7.82113C15.9314 7.96135 15.8381 8.10157 15.7193 8.26653C16.1859 8.26653 16.6016 8.26653 17.0343 8.26653ZM1.57666 8.27478C1.86511 8.27478 2.16205 8.27478 2.4505 8.27478C2.48443 8.27478 2.53534 8.23354 2.53534 8.20055C2.55231 8.06858 2.56079 7.92835 2.57776 7.77989C2.35718 7.77989 2.15356 7.77989 1.95843 7.77989C1.66998 7.78813 1.52576 7.96135 1.57666 8.27478Z" fill="#1565C0"/>
<path d="M15.0165 12.9609C15.6358 12.9609 16.1278 13.4476 16.1278 14.0497C16.1278 14.6518 15.6188 15.1385 15.008 15.1385C14.3971 15.1385 13.8881 14.6436 13.8966 14.0415C13.8966 13.4476 14.3971 12.9609 15.0165 12.9609ZM15.0165 14.5941C15.3304 14.5941 15.5849 14.3466 15.5849 14.0415C15.5849 13.7445 15.3219 13.4888 15.0165 13.4888C14.711 13.4888 14.4565 13.7363 14.4565 14.0415C14.448 14.3549 14.7026 14.5941 15.0165 14.5941Z" fill="#1565C0"/>
</svg>
