<svg width="10" height="18" viewBox="0 0 10 18" fill="none" xmlns="http://www.w3.org/2000/svg">
<path d="M1 17L9 9L1 0.999999" stroke="#353A3F" stroke-linecap="round" stroke-linejoin="round"/>
</svg>
