<svg width="106" height="143" viewBox="0 0 106 143" fill="none" xmlns="http://www.w3.org/2000/svg">
<path d="M4.60378 142.986C1.27831 141.746 0.169823 139.267 0.169823 135.725C0.286506 125.748 0.344847 115.772 0.169823 105.796C0.0531394 95.9372 6.29568 88.2041 13.8801 85.4886C22.2229 82.478 30.3324 79.0541 38.6169 75.8074C39.5504 75.4532 39.7254 74.9219 39.8421 73.9774C40.1338 71.38 39.4337 69.491 37.3334 67.661C33.8912 64.7094 32.6077 61.5807 31.0325 55.0282C30.2741 54.8511 29.5156 54.733 28.8155 54.4969C22.0479 52.4898 19.5392 44.2253 24.2065 38.7944C24.9066 37.968 24.965 37.3186 24.7316 36.3151C23.6231 31.9467 22.6313 27.5193 23.2731 22.9148C23.9732 17.7791 27.0069 15.0046 30.8575 14.4733C31.1492 14.4142 31.5576 14.1781 31.6159 13.883C33.7745 7.97977 38.2668 4.61495 43.926 2.72593C53.844 -0.579852 63.4704 0.364658 72.455 5.85462C73.9719 6.79913 75.3137 8.09783 76.6556 9.3375C77.7057 10.282 77.9391 11.5217 77.2973 12.7023C79.1643 14.5913 81.0895 16.2442 82.7814 18.1923C85.7569 21.5571 85.8152 24.3906 83.1898 28.0506C81.4979 30.4119 80.4478 33.0683 80.0977 35.9018C80.0394 36.5512 80.2144 37.4957 80.6228 37.968C83.4232 40.7425 84.5317 43.9892 83.4232 47.7672C82.2564 51.6633 79.5727 53.9066 75.6054 54.6149C75.3137 54.674 74.9637 54.733 74.6136 54.792C74.3803 55.8546 74.2052 56.9172 73.8552 57.9798C72.63 62.3481 70.2963 66.0671 66.7375 68.9007C66.0374 69.4319 65.7457 70.0223 65.8041 70.9077C65.9207 72.2655 65.454 73.9774 66.0958 74.9219C66.7375 75.8664 68.4294 76.1025 69.7129 76.6338C77.414 79.6444 85.1151 82.537 92.7578 85.6657C100.692 88.9125 104.835 95.2289 105.36 103.729C105.71 109.869 105.476 116.126 105.418 122.265C105.418 123.741 104.543 124.686 103.318 124.627C102.151 124.627 101.334 123.741 101.334 122.324C101.334 121.557 101.334 120.79 101.334 119.845C97.2501 119.845 93.2246 119.845 89.0823 119.845C89.0823 125.984 89.0823 132.183 89.0823 138.44C92.7578 138.44 96.375 138.499 99.9922 138.44C100.926 138.44 101.334 137.614 101.334 136.669C101.334 135.312 101.334 133.895 101.334 132.537C101.334 131.179 102.209 130.235 103.376 130.235C104.543 130.235 105.418 131.12 105.418 132.537C105.476 134.131 105.476 135.666 105.418 137.26C105.243 140.093 103.493 141.687 101.042 142.69C80.0394 142.69 59.0364 142.69 38.0335 142.69C37.1 141.982 36.3416 141.215 36.8083 139.916C37.275 138.617 38.3252 138.499 39.492 138.499C40.2505 138.558 41.0672 138.499 41.8257 138.499C43.5176 138.499 45.2678 138.499 46.9597 138.499C46.9597 122.679 46.9597 107.035 46.9597 91.3918C44.1593 93.1627 42.9342 93.0447 40.4255 90.9786C37.5667 88.5583 34.6497 86.1379 31.7909 83.7176C31.2075 83.1864 30.7408 83.1273 29.9823 83.4225C24.8483 85.4886 19.7142 87.4957 14.5802 89.5618C9.44613 91.6279 6.12066 95.524 4.95383 100.955C4.37041 103.493 4.54543 106.15 4.42875 108.806C4.37041 111.049 4.42875 113.293 4.42875 115.595C8.62934 115.595 12.6549 115.595 16.7972 115.595C16.7972 111.64 16.7972 107.744 16.7972 103.907C16.7972 103.316 16.7972 102.667 16.9138 102.136C17.2055 101.073 17.964 100.542 19.0725 100.66C20.1226 100.778 20.706 101.368 20.8811 102.431C20.9394 102.903 20.9394 103.434 20.9394 103.966C20.9394 114.946 20.9394 125.925 20.9394 136.905C20.9394 137.437 20.9394 137.968 20.9394 138.617C23.5648 138.617 26.0151 138.617 28.4655 138.617C29.6323 138.617 30.6824 138.735 31.1492 140.034C31.6159 141.333 30.8575 142.1 29.924 142.809C21.4061 142.986 13.005 142.986 4.60378 142.986ZM88.9073 115.831C93.1662 115.831 97.1918 115.831 101.217 115.831C101.217 111.758 101.509 107.744 101.159 103.788C100.576 97.295 97.3668 92.4544 91.2993 89.975C86.1069 87.7908 80.8562 85.8428 75.6638 83.7767C74.9637 83.4815 74.4386 83.5406 73.8552 84.0718C71.0548 86.4921 68.2544 88.7944 65.454 91.1557C62.7119 93.4579 61.7201 93.5169 58.7447 91.746C58.7447 107.448 58.7447 123.092 58.7447 138.735C67.496 138.735 76.1305 138.735 84.8817 138.735C84.8817 138.086 84.8817 137.555 84.8817 136.964C84.8817 125.984 84.8817 115.005 84.8817 103.966C84.8817 103.493 84.8817 103.021 84.9401 102.608C85.0568 101.545 85.6985 100.955 86.7487 100.837C87.8572 100.719 88.6156 101.25 88.9073 102.313C89.024 102.844 89.024 103.434 89.024 103.966C88.9073 107.921 88.9073 111.817 88.9073 115.831ZM34.9997 35.4886C34.9997 39.857 34.9997 44.1663 34.9997 48.4756C34.9997 50.6598 34.9414 52.844 35.2331 54.9691C36.3416 63.8239 44.2177 70.3764 53.319 70.0813C62.2452 69.8452 69.8296 62.7613 70.2963 53.9066C70.5881 48.0624 70.413 42.1592 70.413 36.3151C70.413 35.9609 69.888 35.3706 69.5379 35.2525C66.7375 34.426 65.1623 32.7732 64.9289 29.7625C64.8122 28.3458 64.1122 27.6374 62.7703 27.3422C56.4111 25.8074 50.0518 25.7484 43.6343 27.1061C40.9506 27.6964 40.8922 27.7554 40.4255 30.5299C40.0171 32.8912 38.5586 34.367 36.3416 35.0754C35.9915 35.3115 35.5831 35.3706 34.9997 35.4886ZM71.4048 10.4591C71.1131 10.223 70.8798 9.98685 70.5881 9.86879C61.2534 4.31979 51.6271 3.67044 41.884 8.45202C38.6752 9.98685 36.2832 12.5252 35.2331 16.1262C34.7664 17.8381 33.3662 18.6645 31.6159 18.8416C29.3989 19.0187 27.9404 20.2584 27.6487 22.3835C27.2986 24.8629 27.2986 27.4013 27.4737 29.9396C27.5903 31.9467 28.2321 33.9538 28.6405 35.9609C29.5156 35.7838 30.1574 35.7247 30.7991 35.6067C31.0325 33.0093 32.2577 31.4745 34.9414 31.2974C36.0499 31.2383 36.3999 30.4119 36.4583 29.3493C36.75 26.2206 38.4419 24.2726 41.4756 23.5051C49.06 21.6161 56.6444 21.6161 64.2288 23.5642C67.0876 24.3316 68.7211 26.3387 69.0128 29.2903C69.1295 30.5299 69.6546 31.2383 70.9381 31.4154C73.1551 31.7106 74.1469 32.6551 74.5553 34.8983C74.672 35.7247 75.022 36.0789 75.8388 35.7838C75.8971 35.5476 76.0138 35.2525 76.0722 35.0164C76.5972 31.5925 77.9974 28.5229 80.0394 25.6893C81.2062 24.0955 81.1479 23.151 79.9227 21.6161C77.7057 18.8416 75.0804 16.5984 71.8132 15.1817C69.888 14.3552 69.5963 12.5252 71.1131 10.9904C71.1715 10.7543 71.2881 10.6362 71.4048 10.4591ZM16.6221 138.853C16.6221 132.537 16.6221 126.398 16.6221 120.199C12.4799 120.199 8.45432 120.199 4.37041 120.199C4.37041 125.925 4.37041 131.533 4.37041 137.201C4.37041 138.263 4.95383 138.853 6.00398 138.853C9.50447 138.853 13.005 138.853 16.6221 138.853ZM54.3691 138.794C54.3691 121.793 54.3691 104.851 54.3691 87.9089C53.2606 87.9089 52.2105 87.9089 51.2187 87.9089C51.2187 104.91 51.2187 121.793 51.2187 138.794C52.3272 138.794 53.319 138.794 54.3691 138.794ZM43.926 72.4426C43.926 73.1509 43.9843 73.6232 43.926 74.0364C43.6343 75.5713 44.2177 76.6338 45.5012 77.5193C46.8431 78.4638 48.0682 79.5854 49.2934 80.707C49.8768 81.2383 50.4019 81.8286 50.6936 82.537C51.0436 83.3634 51.3353 83.8947 52.3272 83.7176C53.319 83.5406 54.6025 84.2489 55.0109 82.478C55.1859 81.8286 55.7693 81.2383 56.3527 80.766C57.5196 79.7035 58.628 78.5819 59.9699 77.8145C62.1285 76.5158 61.8952 74.6858 61.6035 72.5606C55.711 74.8038 49.9352 74.8629 43.926 72.4426ZM35.2914 81.6515C38.2085 84.0718 40.9506 86.4331 43.8093 88.7944C44.8594 87.2005 45.8512 85.7247 46.9014 84.1309C45.0928 82.596 43.3426 81.1202 41.5923 79.7035C41.3589 79.5264 40.8339 79.5264 40.4838 79.6444C38.8503 80.2348 37.2167 80.8841 35.2914 81.6515ZM70.2963 81.7106C68.3711 80.9431 66.7375 80.2938 65.104 79.6444C64.8122 79.5264 64.2872 79.5264 64.1121 79.6444C62.3036 81.0612 60.5533 82.596 58.7447 84.0718C59.8532 85.6657 60.7867 87.1415 61.8368 88.7354C64.6372 86.4331 67.3793 84.1309 70.2963 81.7106ZM30.7991 50.7779C30.7991 47.0589 30.7991 43.4579 30.7991 39.857C27.8821 40.1521 25.8984 42.3953 25.8984 45.2289C25.8984 48.1805 27.8821 50.4827 30.7991 50.7779ZM74.672 39.975C74.672 43.635 74.672 47.1179 74.672 50.6598C77.1806 50.6598 79.3976 48.4756 79.631 45.8192C79.8644 43.0447 77.7641 40.5063 74.672 39.975Z" fill="white"/>
</svg>
