<svg width="8" height="13" viewBox="0 0 8 13" fill="none" xmlns="http://www.w3.org/2000/svg">
<path d="M6.62565 0.833496L0.958984 6.50016L6.62565 12.1668" stroke="#353A3F" stroke-width="1.5" stroke-linecap="round" stroke-linejoin="round"/>
</svg>
