<svg width="21" height="20" viewBox="0 0 21 20" fill="none" xmlns="http://www.w3.org/2000/svg">
<path d="M19.72 9.64L1 18.28L4.36 9.64L1 1L19.72 9.64Z" stroke="white" stroke-width="1.5" stroke-linejoin="round"/>
<path d="M19.2404 9.63989H4.36035" stroke="white" stroke-width="1.5" stroke-linejoin="round"/>
</svg>
