<svg width="21" height="20" viewBox="0 0 21 20" fill="none" xmlns="http://www.w3.org/2000/svg">
<path d="M4.39428 19.1073H1L1.4143 15.7086L16.5 1L19.8571 4.02161L4.39428 19.1073Z" stroke="#1565C0" stroke-width="1.3" stroke-linejoin="round"/>
<path d="M15 4.60742L16.8857 6.49313" stroke="#1565C0" stroke-width="1.3" stroke-linecap="round" stroke-linejoin="round"/>
</svg>
