<svg width="10" height="15" viewBox="0 0 10 15" fill="none" xmlns="http://www.w3.org/2000/svg">
<path d="M1.03695 1.96617L2.33121 0.671913L8.98879 7.32949L2.33121 13.9871L1.03695 12.6928L6.21239 7.50608L6.38859 7.32949L6.21239 7.15291L1.03695 1.96617Z" fill="#353A3F" stroke="white" stroke-width="0.5"/>
</svg>
